lab-5-student
…
question_1_scores <- teacher_evals_clean |>
  filter(question_no == "901") |>
  group_by(teacher_id) |>
  summarise(avg_q1_score = mean(SET_score_avg, na.rm = TRUE), .groups = "drop")

highest_avg <- question_1_scores |>
  filter(avg_q1_score == max(avg_q1_score))

lowest_avg <- question_1_scores |>
  filter(avg_q1_score == min(avg_q1_score))

highest_avg

# A tibble: 54 × 2
   teacher_id avg_q1_score
   <chr>             <dbl>
 1 100131                5
 2 101945                5
 3 103088                5
 4 106428                5
 5 106429                5
 6 3487                  5
 7 3549                  5
 8 3608                  5
 9 3684                  5
10 37013                 5
# ℹ 44 more rows
…
