lab-7-student
…
# Looking further into the descriptions to hopfully get more evidence

SQL_City_Murders$description

[1] "REDACTED REDACTED REDACTED"                                                                                                                                                                   
[2] "Someone killed the guard! He took an arrow to the knee!"                                                                                                                                      
[3] "Security footage shows that there were 2 witnesses. The first witness lives at the last house on \"Northwestern Dr\". The second witness, named Annabel, lives somewhere on \"Franklin Ave\"."

crime_scene_report |>
 #filter(str_detect(date, "20180115")) |>
 filter(str_detect(type, "blackmail"))

# A tibble: 130 × 4
       date type      description                                          city 
      <dbl> <chr>     <chr>                                                <chr>
 1 20170104 blackmail see what was the matter with it. There could be no … Lacey
 2 20170106 blackmail rather sharply; ‘I advise you to leave off this min… Lewi…
 3 20170106 blackmail CHAPTER X. The Lobster Quadrille                     Jack…
 4 20170107 blackmail This answer so confused poor Alice, that she let th… Newa…
 5 20170110 blackmail Alice was not much surprised at this, she was getti… Kail…
 6 20170113 blackmail ‘There’s no sort of use in knocking,’ said the Foot… Fort…
 7 20170114 blackmail <NA>                                                 Oran…
 8 20170116 blackmail <NA>                                                 Onta…
 9 20170116 blackmail Fish-Footman was gone, and the other was sitting on… Tall…
10 20170123 blackmail <NA>                                                 Arva…
# ℹ 120 more rows
…
